%YAML 1.1
%TAG !u! tag:unity3d.com,2011:
--- !u!114 &11400000
MonoBehaviour:
  m_ObjectHideFlags: 0
  m_CorrespondingSourceObject: {fileID: 0}
  m_PrefabInstance: {fileID: 0}
  m_PrefabAsset: {fileID: 0}
  m_GameObject: {fileID: 0}
  m_Enabled: 1
  m_EditorHideFlags: 0
  m_Script: {fileID: 11500000, guid: c8137636ad790ad40a44a31bc4b78ce6, type: 3}
  m_Name: Hats
  m_EditorClassIdentifier: 
  _itemsImage:
  - {fileID: 21300000, guid: 76bd4bdd5a8caee4e82c2f7b5c05236f, type: 3}
  - {fileID: 21300002, guid: 76bd4bdd5a8caee4e82c2f7b5c05236f, type: 3}
  - {fileID: 21300004, guid: 76bd4bdd5a8caee4e82c2f7b5c05236f, type: 3}
  - {fileID: 21300006, guid: 76bd4bdd5a8caee4e82c2f7b5c05236f, type: 3}
  - {fileID: 21300008, guid: 76bd4bdd5a8caee4e82c2f7b5c05236f, type: 3}
  - {fileID: 21300010, guid: 76bd4bdd5a8caee4e82c2f7b5c05236f, type: 3}
